C:\Users\jakub\IdeaProjects\wargames\src\main\java\units\RangedUnit.java
C:\Users\jakub\IdeaProjects\wargames\src\main\java\file\FileHandler.java
C:\Users\jakub\IdeaProjects\wargames\src\main\java\units\InfantryUnit.java
C:\Users\jakub\IdeaProjects\wargames\src\main\java\battle\Army.java
C:\Users\jakub\IdeaProjects\wargames\src\main\java\units\CavalryUnit.java
C:\Users\jakub\IdeaProjects\wargames\src\main\java\units\Unit.java
C:\Users\jakub\IdeaProjects\wargames\src\main\java\battle\Battle.java
C:\Users\jakub\IdeaProjects\wargames\src\main\java\battle\BattleClient.java
C:\Users\jakub\IdeaProjects\wargames\src\main\java\battle\Terrain.java
C:\Users\jakub\IdeaProjects\wargames\src\main\java\units\CommanderUnit.java
